{
  "data": [
    {
      "category": "3.10",
      "date": "2024-09",
      "downloads": 220
    },
    {
      "category": "3.10",
      "date": "2024-10",
      "downloads": 244
    },
    {
      "category": "3.10",
      "date": "2024-11",
      "downloads": 240
    },
    {
      "category": "3.10",
      "date": "2024-12",
      "downloads": 252
    },
    {
      "category": "3.10",
      "date": "2025-01",
      "downloads": 248
    },
    {
      "category": "3.10",
      "date": "2025-02",
      "downloads": 218
    },
    {
      "category": "3.10",
      "date": "2025-03",
      "downloads": 57
    },
    {
      "category": "3.11",
      "date": "2024-09",
      "downloads": 213
    },
    {
      "category": "3.11",
      "date": "2024-10",
      "downloads": 242
    },
    {
      "category": "3.11",
      "date": "2024-11",
      "downloads": 240
    },
    {
      "category": "3.11",
      "date": "2024-12",
      "downloads": 253
    },
    {
      "category": "3.11",
      "date": "2025-01",
      "downloads": 250
    },
    {
      "category": "3.11",
      "date": "2025-02",
      "downloads": 216
    },
    {
      "category": "3.11",
      "date": "2025-03",
      "downloads": 56
    },
    {
      "category": "3.12",
      "date": "2024-09",
      "downloads": 216
    },
    {
      "category": "3.12",
      "date": "2024-10",
      "downloads": 243
    },
    {
      "category": "3.12",
      "date": "2024-11",
      "downloads": 240
    },
    {
      "category": "3.12",
      "date": "2024-12",
      "downloads": 250
    },
    {
      "category": "3.12",
      "date": "2025-01",
      "downloads": 250
    },
    {
      "category": "3.12",
      "date": "2025-02",
      "downloads": 216
    },
    {
      "category": "3.12",
      "date": "2025-03",
      "downloads": 56
    },
    {
      "category": "3.13",
      "date": "2024-11",
      "downloads": 2
    },
    {
      "category": "3.13",
      "date": "2025-01",
      "downloads": 2
    },
    {
      "category": "3.8",
      "date": "2024-09",
      "downloads": 216
    },
    {
      "category": "3.8",
      "date": "2024-10",
      "downloads": 248
    },
    {
      "category": "3.8",
      "date": "2024-11",
      "downloads": 242
    },
    {
      "category": "3.8",
      "date": "2024-12",
      "downloads": 252
    },
    {
      "category": "3.8",
      "date": "2025-01",
      "downloads": 248
    },
    {
      "category": "3.8",
      "date": "2025-02",
      "downloads": 216
    },
    {
      "category": "3.8",
      "date": "2025-03",
      "downloads": 56
    },
    {
      "category": "3.9",
      "date": "2024-10",
      "downloads": 3
    },
    {
      "category": "3.9",
      "date": "2024-12",
      "downloads": 1
    },
    {
      "category": "3.9",
      "date": "2025-03",
      "downloads": 2
    },
    {
      "category": "null",
      "date": "2024-09",
      "downloads": 65
    },
    {
      "category": "null",
      "date": "2024-10",
      "downloads": 709
    },
    {
      "category": "null",
      "date": "2024-11",
      "downloads": 153
    },
    {
      "category": "null",
      "date": "2024-12",
      "downloads": 74
    },
    {
      "category": "null",
      "date": "2025-01",
      "downloads": 87
    },
    {
      "category": "null",
      "date": "2025-02",
      "downloads": 82
    },
    {
      "category": "null",
      "date": "2025-03",
      "downloads": 21
    }
  ],
  "package": "aikasilta",
  "type": "python_minor_downloads"
}
